<?xml version="1.0" encoding="utf-8"?>
<!-- Generator: Adobe Illustrator 23.0.2, SVG Export Plug-In . SVG Version: 6.00 Build 0)  -->
<svg version="1.1" id="Calque_1" xmlns="http://www.w3.org/2000/svg" xmlns:xlink="http://www.w3.org/1999/xlink" x="0px" y="0px"
	 viewBox="0 0 24 24" style="enable-background:new 0 0 24 24;" xml:space="preserve">
<style type="text/css">
	.st0{fill:none;stroke:#000000;stroke-width:2;stroke-linecap:round;stroke-linejoin:round;}
</style>
<line class="st0" x1="1" y1="1" x2="23" y2="23"/>
<path class="st0" d="M16.7,11.1c0.8,0.4,1.6,0.9,2.3,1.5"/>
<path class="st0" d="M5,12.6c1.5-1.2,3.3-2.1,5.2-2.4"/>
<path class="st0" d="M10.7,5.1C15,4.7,19.3,6.1,22.6,9"/>
<path class="st0" d="M1.4,9c1.4-1.2,3-2.2,4.7-2.9"/>
<path class="st0" d="M8.5,16.1c2.1-1.5,4.9-1.5,6.9,0"/>
<line class="st0" x1="12" y1="20" x2="12" y2="20"/>
</svg>
